# Created at 2020-02-20T10:34:34.543
System.exit() or native command error interrupted process checker.
java.lang.IllegalStateException: Cannot use PPID 13280 process information. Going to use NOOP events.
	at org.apache.maven.surefire.booter.PpidChecker.checkProcessInfo(PpidChecker.java:155)
	at org.apache.maven.surefire.booter.PpidChecker.isProcessAlive(PpidChecker.java:116)
	at org.apache.maven.surefire.booter.ForkedBooter$2.run(ForkedBooter.java:214)
	at java.util.concurrent.Executors$RunnableAdapter.call(Unknown Source)
	at java.util.concurrent.FutureTask.runAndReset(Unknown Source)
	at java.util.concurrent.ScheduledThreadPoolExecutor$ScheduledFutureTask.access$301(Unknown Source)
	at java.util.concurrent.ScheduledThreadPoolExecutor$ScheduledFutureTask.run(Unknown Source)
	at java.util.concurrent.ThreadPoolExecutor.runWorker(Unknown Source)
	at java.util.concurrent.ThreadPoolExecutor$Worker.run(Unknown Source)
	at java.lang.Thread.run(Unknown Source)


# Created at 2020-02-20T10:35:28.225
Killing self fork JVM. PING timeout elapsed.

