-------------------------------------------------------------------------------
Test set: com.qa.runner.LocationRunner
-------------------------------------------------------------------------------
Tests run: 1, Failures: 0, Errors: 1, Skipped: 0, Time elapsed: 0 s <<< FAILURE! - in com.qa.runner.LocationRunner
initializationError(com.qa.runner.LocationRunner)  Time elapsed: 0 s  <<< ERROR!
gherkin.TagExpression$BadTagException: Bad tag: ""

